<?xml version="1.0" encoding="UTF-8" standalone="no"?>
<!-- Created with Inkscape (http://www.inkscape.org/) -->

<svg
   xmlns:dc="http://purl.org/dc/elements/1.1/"
   xmlns:cc="http://creativecommons.org/ns#"
   xmlns:rdf="http://www.w3.org/1999/02/22-rdf-syntax-ns#"
   xmlns:svg="http://www.w3.org/2000/svg"
   xmlns="http://www.w3.org/2000/svg"
   xmlns:sodipodi="http://sodipodi.sourceforge.net/DTD/sodipodi-0.dtd"
   xmlns:inkscape="http://www.inkscape.org/namespaces/inkscape"
   width="72"
   height="72"
   id="svg4615"
   version="1.1"
   inkscape:version="0.91 r13725"
   sodipodi:docname="logo-72.svg"
   inkscape:export-filename="/home/klenzel/projects/ACT/addons/commercial/issueprinter/files/logo.png"
   inkscape:export-xdpi="90"
   inkscape:export-ydpi="90">
  <defs
     id="defs4617">
    <marker
       inkscape:stockid="Arrow2Mstart"
       orient="auto"
       refY="0.0"
       refX="0.0"
       id="Arrow2Mstart"
       style="overflow:visible"
       inkscape:isstock="true">
      <path
         id="path11726"
         style="fill-rule:evenodd;stroke-width:0.625;stroke-linejoin:round;stroke:#2c6aa8;stroke-opacity:1;fill:#2c6aa8;fill-opacity:1"
         d="M 8.7185878,4.0337352 L -2.2072895,0.016013256 L 8.7185884,-4.0017078 C 6.9730900,-1.6296469 6.9831476,1.6157441 8.7185878,4.0337352 z "
         transform="scale(0.6) translate(0,0)" />
    </marker>
    <marker
       inkscape:isstock="true"
       style="overflow:visible;"
       id="marker12132"
       refX="0.0"
       refY="0.0"
       orient="auto"
       inkscape:stockid="Arrow2Mend">
      <path
         transform="scale(0.6) rotate(180) translate(0,0)"
         d="M 8.7185878,4.0337352 L -2.2072895,0.016013256 L 8.7185884,-4.0017078 C 6.9730900,-1.6296469 6.9831476,1.6157441 8.7185878,4.0337352 z "
         style="fill-rule:evenodd;stroke-width:0.625;stroke-linejoin:round;stroke:#2c6aa8;stroke-opacity:1;fill:#2c6aa8;fill-opacity:1"
         id="path12134" />
    </marker>
    <marker
       inkscape:stockid="Arrow2Mend"
       orient="auto"
       refY="0.0"
       refX="0.0"
       id="Arrow2Mend"
       style="overflow:visible;"
       inkscape:isstock="true"
       inkscape:collect="always">
      <path
         id="path11729"
         style="fill-rule:evenodd;stroke-width:0.625;stroke-linejoin:round;stroke:#2c6aa8;stroke-opacity:1;fill:#2c6aa8;fill-opacity:1"
         d="M 8.7185878,4.0337352 L -2.2072895,0.016013256 L 8.7185884,-4.0017078 C 6.9730900,-1.6296469 6.9831476,1.6157441 8.7185878,4.0337352 z "
         transform="scale(0.6) rotate(180) translate(0,0)" />
    </marker>
    <marker
       inkscape:stockid="Arrow2Lend"
       orient="auto"
       refY="0.0"
       refX="0.0"
       id="Arrow2Lend"
       style="overflow:visible;"
       inkscape:isstock="true">
      <path
         id="path11723"
         style="fill-rule:evenodd;stroke-width:0.625;stroke-linejoin:round;stroke:#000000;stroke-opacity:1;fill:#000000;fill-opacity:1"
         d="M 8.7185878,4.0337352 L -2.2072895,0.016013256 L 8.7185884,-4.0017078 C 6.9730900,-1.6296469 6.9831476,1.6157441 8.7185878,4.0337352 z "
         transform="scale(1.1) rotate(180) translate(1,0)" />
    </marker>
  </defs>
  <sodipodi:namedview
     id="base"
     pagecolor="#ffffff"
     bordercolor="#666666"
     borderopacity="1.0"
     inkscape:pageopacity="0.0"
     inkscape:pageshadow="2"
     inkscape:zoom="5.12"
     inkscape:cx="-16.319352"
     inkscape:cy="-0.331588"
     inkscape:document-units="px"
     inkscape:current-layer="g3927"
     showgrid="false"
     showguides="false"
     inkscape:guide-bbox="true"
     inkscape:window-width="2560"
     inkscape:window-height="1396"
     inkscape:window-x="1280"
     inkscape:window-y="0"
     inkscape:window-maximized="1">
    <inkscape:grid
       type="xygrid"
       id="grid4323" />
  </sodipodi:namedview>
  <metadata
     id="metadata4620">
    <rdf:RDF>
      <cc:Work
         rdf:about="">
        <dc:format>image/svg+xml</dc:format>
        <dc:type
           rdf:resource="http://purl.org/dc/dcmitype/StillImage" />
        <dc:title></dc:title>
      </cc:Work>
    </rdf:RDF>
  </metadata>
  <g
     inkscape:label="Layer 1"
     inkscape:groupmode="layer"
     id="layer1"
     transform="translate(0,-980.36218)">
    <g
       id="g3927"
       transform="matrix(1,0,0,0.98181897,0,16.588892)">
      <rect
         style="fill:#ffffff;fill-opacity:1;stroke:none"
         id="rect3936"
         width="71.999992"
         height="73.333267"
         x="1.110223e-16"
         y="981.62018"
         ry="0" />
      <rect
         style="fill:#ffffff;fill-opacity:1;stroke:none"
         id="rect5416-6"
         width="35.999996"
         height="36.666634"
         x="1.110223e-16"
         y="1018.2868" />
      <g
         id="g3978"
         transform="translate(0,4.0740571)">
        <path
           d="M 2.2474998e-6,987.73128 72,987.73128 l 0,-7.12962 -71.9999977525001,0 0,7.12962 z"
           style="fill:#a4a9b1;fill-opacity:1;fill-rule:nonzero;stroke:none"
           id="path4744"
           inkscape:connector-curvature="0" />
        <path
           d="M 2.2474998e-6,1003.0091 72,1003.0091 l 0,-7.12967 -71.9999977525001,0 0,7.12967 z"
           style="fill:#a4a9b1;fill-opacity:1;fill-rule:nonzero;stroke:none"
           id="path4746"
           inkscape:connector-curvature="0" />
        <path
           d="M 2.2474998e-6,1018.2868 72,1018.2868 l 0,-7.1296 -71.9999977525001,0 0,7.1296 z"
           style="fill:#a4a9b1;fill-opacity:1;fill-rule:nonzero;stroke:none"
           id="path4748"
           inkscape:connector-curvature="0" />
        <path
           d="M 2.2474998e-6,1033.5646 72,1033.5646 l 0,-7.1297 -71.9999977525001,0 0,7.1297 z"
           style="fill:#a4a9b1;fill-opacity:1;fill-rule:nonzero;stroke:none"
           id="path4750"
           inkscape:connector-curvature="0" />
        <rect
           y="980.09241"
           x="11.999999"
           height="61.620316"
           width="59.999996"
           id="rect5416-34-2"
           style="fill:#ffffff;fill-opacity:1;stroke:none" />
        <ellipse
           ry="25.164549"
           rx="11"
           cy="1030.8074"
           cx="27"
           id="ellipse9094"
           style="fill:#2c6aa8;fill-opacity:1;fill-rule:evenodd;stroke:none;stroke-width:1.00921643px;stroke-linecap:butt;stroke-linejoin:miter;stroke-opacity:1" />
        <ellipse
           style="fill:#2c6aa8;fill-opacity:1;fill-rule:evenodd;stroke:none;stroke-width:1.00921643px;stroke-linecap:butt;stroke-linejoin:miter;stroke-opacity:1"
           id="ellipse9896"
           cx="27.054688"
           cy="999.99725"
           rx="6.0546875"
           ry="6.0673418" />
        <ellipse
           style="fill:#2c6aa8;fill-opacity:1;fill-rule:evenodd;stroke:none;stroke-width:1.00921643px;stroke-linecap:butt;stroke-linejoin:miter;stroke-opacity:1"
           id="ellipse9902"
           cx="55.839844"
           cy="1030.8074"
           rx="10.839844"
           ry="25.164549" />
        <ellipse
           ry="6.0673418"
           rx="6.0546875"
           cy="999.99725"
           cx="56.054688"
           id="ellipse9904"
           style="fill:#2c6aa8;fill-opacity:1;fill-rule:evenodd;stroke:none;stroke-width:1.00921643px;stroke-linecap:butt;stroke-linejoin:miter;stroke-opacity:1" />
        <path
           style="fill:none;fill-opacity:1;fill-rule:evenodd;stroke:#2c6aa8;stroke-width:1.76177418px;stroke-linecap:butt;stroke-linejoin:miter;stroke-opacity:1;marker-end:url(#Arrow2Mend)"
           d="m 22,988.2635 33.331125,0"
           id="path11696"
           inkscape:connector-curvature="0" />
      </g>
      <rect
         style="fill:#ffffff;fill-opacity:1;stroke:none"
         id="rect9899"
         width="58.007812"
         height="31.032961"
         x="12.304688"
         y="1031.2809"
         rx="2.130394" />
      <path
         inkscape:connector-curvature="0"
         id="path12130"
         d="m 24.683449,1038.1731 33.316551,0"
         style="fill:none;fill-opacity:1;fill-rule:evenodd;stroke:#2c6aa8;stroke-width:1.76138914px;stroke-linecap:butt;stroke-linejoin:miter;stroke-opacity:1;marker-start:url(#Arrow2Mstart)" />
    </g>
    <path
       transform="matrix(1,0,0,0.98181897,0,20.58888)"
       d="m 0,1048.8423 72,0 0,-7.1296 -72,0 0,7.1296 z"
       style="fill:#a4a9b1;fill-opacity:1;fill-rule:nonzero;stroke:none"
       id="path4752"
       inkscape:connector-curvature="0" />
  </g>
</svg>
